Fund Name,Effective Date,Investment Strategy,Maximum Offering Proceeds,,,,,,,,,,,,,,,,,,,,,,
Pioneer ILS Bridge Fund,2018-09-11,Insurance Linked Securities,"$300,000,000",,,,,,,,,,,,,,,,,,,,,,
PIMCO Flexible Municipal Income Fund,2018-07-19,Credit,"$1,000,000,000",,,,,,,,,,,,,,,,,,,,,,
Flat Rock Opportunity Fund ,2018-07-02,Credit,"$100,000,000",,,,,,,,,,,,,,,,,,,,,,
American Beacon Sound Point Enhanced Income Fund,2018-06-29,Credit,"$250,000,000",,,,,,,,,,,,,,,,,,,,,,
NexPoint Latin American Opportunities Fund,2018-06-25,Credit & Equity,"$100,000,000",,,,,,,,,,,,,,,,,,,,,,
OFI Carlyle Global Private Credit Fund,2018-05-31,Credit,"$1,000,000,000",,,,,,,,,,,,,,,,,,,,,,
NexPoint Healthcare Opportunities Fund,2018-05-10,Credit & Equity,"$100,000,000",,,,,,,,,,,,,,,,,,,,,,
Destra International & Event Driven Credit Fund,2018-05-09,Credit,"$126,000,000",,,,,,,,,,,,,,,,,,,,,,
Tortoise Tax- Advantaged Social Infrastructure Fund,2018-03-26,Credit,"$50,000,000",,,,,,,,,,,,,,,,,,,,,,
Blackstone/GSO Floating Rate Enhanced Income Fund,2018-01-02,Credit,"$3,000,000,000",,,,,,,,,,,,,,,,,,,,,,
Angel Oak Strategic Credit Fund,2017-12-01,Credit,"$250,000,000",,,,,,,,,,,,,,,,,,,,,,
Pathway Capital Opportunity Fund,2017-10-30,Other,"$773,393,896",,,,,,,,,,,,,,,,,,,,,,
FS Credit Income Fund,2017-10-03,Credit,"$2,000,000,000",,,,,,,,,,,,,,,,,,,,,,
USQ Core Real Estate Fund,2017-09-27,Real Estate,"$250,000,000",,,,,,,,,,,,,,,,,,,,,,
Versus Capital Real Assets Fund LLC,2017-08-17,Infrastructure/Timber/Agriculture,"$650,000,000",,,,,,,,,,,,,,,,,,,,,,
City National Rochdale Select Strategies Fund,2017-06-22,Insurance Linked Securities,"$500,000,000",,,,,,,,,,,,,,,,,,,,,,
Relative Value Fund,2017-05-01,Hedge Funds,"$100,000,000",,,,,,,,,,,,,,,,,,,,,,
Griffin Institutional Access Credit Fund,2017-03-30,Credit,"$1,000,000,000",,,,,,,,,,,,,,,,,,,,,,
FS ENERGY TOTAL RETURN FUND,2017-03-08,Credit & Equity,"$2,000,000,000",,,,,,,,,,,,,,,,,,,,,,
PIMCO Flexible Credit Income Fund,2017-02-09,Credit,"$1,000,000,000",,,,,,,,,,,,,,,,,,,,,,
Cion Ares Diversified Credit Fund,2016-12-01,Credit,"$1,000,000,000",,,,,,,,,,,,,,,,,,,,,,
SIERRA TOTAL RETURN FUND,2016-11-09,Credit,"$1,000,000,000",,,,,,,,,,,,,,,,,,,,,,
Stone Ridge Trust IV,2016-10-21,Insurance Linked Securities,"$1,000,000",,,,,,,,,,,,,,,,,,,,,,
RiverPark Floating Rate Commercial Real Estate,2016-09-09,Real Estate Debt,"$250,000,000",,,,,,,,,,,,,,,,,,,,,,
RiverNorth Marketplace Lending Corp,2016-08-19,Credit,"$1,000,000,000",,,,,,,,,,,,,,,,,,,,,,
Archstone Alternative Solutions Fund,2016-07-26,Fund of Hedge Funds,"$100,000,000",,,,,,,,,,,,,,,,,,,,,,
Nexpoint Real Estate Strategies Fund,2016-07-01,Real Estate,"$1,000,000,000",,,US,,,,,,,,,,,,,,,,,,,
Crow Point Global Dividend Plus Fund,2016-06-24,Equity,"$50,000,000",,,,,,,,,,,,,,,,,,,,,,
ABS Long/Short Strategies Fund,2016-06-08,Equity,"$100,000,000",,,,,,,,,,,,,,,,,,,,,,
Stone Ridge Trust V,2016-06-06,Credit,"$2,500,000,000",,,,,,,,,,,,,,,,,,,,,,
