Fund,Category,Total Net Assets(MRQ),Share Classes/Tickers,Subcategory
504 Fund,Real Estate,"$45,846,246 ",XPNNX,Real Estate Debt
ABS Long/Short Strategies Fund,Other,"$143,986,475 ",,Equity
ACAP Strategic Fund,Other,"$2,957,070,163 ",XCAPX,Equity
Alternative Strategies Fund,Diversified,"$23,799,149 ","LTAFX,LTCFX,LTIFX",
American Beacon Apollo Total Return Fund,Credit,$0 ,ATRYX,
American Beacon Sound Point Enhanced Income Fund,Credit,$0 ,SPEYX,
Angel Oak Strategic Credit Fund,Credit,"$5,902,506 ",ANGLX,
"BlackRock Enhanced Gov’t Fd, Inc.",Credit,"$79,955,308 ",EGF,
Blackstone GSO Floating Rate Enhanced Income Fund,Credit,"$236,735,117 ",BGFLX,
BMO LGM Frontier Markets Equi..Fd,Other,"$127,527,232 ",BLGFX,Equity
Church Capital Fund,Real Estate,"$18,316,604 ",XCBFX,Real Estate Debt
Cion Ares Diversified Credit Fund,Credit,"$111,192,352 ","CADEX, CADCX, CADUX",
City National Rochdale Select Strategies Fund,Derivatives/ Insurance linked securities,"$44,510,000 ",CNRLX,
Destra International & Event Driven Credit Fund,Credit,"$24,744,370 ",CEDEX,
Flat Rock Opportunity Fund,Credit,$0 ,FROPX,
Forefront Income Trust,Credit,"$7,899,012 ",BFITX,
FS Credit Income Fund,Credit,"$93,561,000 ","FCRIX,FCREX, FCRLX,FCRMX, FCRTX",
FS Energy Total Return Fund,Other,"$34,402,000 ","XFEYX, XFEAX","Diversified Credit & Equity, energy sector focus"
Griffin Institutional Access RE Fund,Real Estate,"$2,391,196,374 ","GIREX,GCREX,GRIFX",
Griffin Institutional Access Credit Fund,Credit,"$130,543,356 ","CRDTX, CGCCX,CRDIX",
Invesco Senior Loan Fund,Credit,"$718,800,066 ","VSLAX,VSLBX,VSLCX,VSLYX,XPRTX,XSLCX",
Multi-Strategy Growth & Income Fd,Other,"$179,602,209 ","MSFDX,MSFYX,MCFDX,MSFIX",Endowment
NexPoint Healthcare Opportunities Fund,Other,"$5,021,154 ","NXHAX,NXHCX,NXHZX","Diversified Credit & Equity, healthcare sector focus"
NexPoint Latin American Opportunities Fund,Other,,"NXLAX,NXLCX,NXLLX,NXLZX",Credit & Equity in Laitin America
Nexpoint Real Estate Strategies Fund,Real Estate,"$13,393,854 ","NRSAX,NRSCX,NRSZX",
OFI Carlyle Private Credit Fund,Credit,"$49,899,139 ",OCPAX,
Palmer Square Opportunistic I..Fd,Credit,"$131,763,482 ",PSOIX,
Pathway Capital Opportunity Fund,Credit,"$8,353,164 ",,
PIMCO Flexible Credit Income Fund,Credit,"$538,772,000 ",PFLEX,
PIMCO Flexible Municipal Income Fund,Credit,$0 ,"PMFLX, PMFAX",
Pioneer ILS Bridge Fund,Derivatives/ Insurance linked securities,$0 ,,
Pioneer ILS Interval Fund,Derivatives/ Insurance linked securities,"$982,501,337 ",XILSX,
Predex,Real Estate,"$46,946,744 ",PRDEX,
Relative Value Fund,Other,"$10,744,094 ",VFLEX,Hedge Funds
Resource Credit Income Fund,Credit,"$142,010,218 ","RCIAX,RCIUX,RCICX,RIFTX,RCIWX,RCIDX",
Resource RE Diversified Income Fd,Real Estate,"$255,768,382 ","RREDX, CRREX, DRREX,IRREX,RRETX,URREX,WRREX",
RiverNorth Marketplace Lending Corp,Credit,"$260,320,294 ",RMPLX,Marketplace Lending
RiverPark Floating Rate CMBS Fund,Credit,"$58,266,000 ",RCRIX,
SharesPost 100 Fund,Other,"$121,451,044 ",PRIVX,Venture Capital
Sierra Total Return Fund,Credit,"$2,156,598 ",SRNTX,
Stone Ridge Trust II(Stone Ridge Reinsurance Risk Premium Interval Fund),Derivatives/ Insurance linked securities,"$6,069,759,815 ",SRRIX,
Stone Ridge Trust III,Derivatives/ Insurance linked securities,"$1,548,580,870 ",AVRPX,Derivatives
Stone Ridge Trust IV,Derivatives/ Insurance linked securities,$0 ,SRPEX,
Stone Ridge Trust V,Credit,"$3,303,023,286 ",LENDX,Marketplace Lending
Tortoise Tax-Advantaged Social Infrastructure Fund,Credit,"$46,545,328 ",TSIFX,
Total Income (plus) RE Fund,Real Estate,"$1,042,044,610 ","TIPRX,TIPPX,TIPWX",
USQ Core Real Estate Income Fund,Real Estate,"$27,528,895 ",USQIX,
Variant Alternative Income Fund,Credit,$0 ,,
Versus Cap Multi-Manager RE…LLC,Real Estate,"$2,362,424,011 ","VCMRX,VCMIX,",
Versus Capital Real Assets Fund LLC,Other,"$965,782,663 ",VCRRX,Infrastructure/Timber/Agriculture
Vertical Capital Income Fund,Real Estate,"$145,722,908 ",VCAPX,Real Estate Debt
Voya SENIOR INCOME FUND,Credit,"$382,618,740 ","XSIAX,XSIBX,XSICX,XSIIX,XSIWX",
Weiss Strategic Interval Fund,Other,"$185,727,948 ",NA-Private,Long/Short Equity
Wildermuth Endowment Strategy Fd,Diversified,"$93,426,822 ","WESFX,WEFCX",Endowment
Winton Diversified Opportunit..Fd,Other,"$14,999,192 ",WDOFUND,Currently Liquidating
Zazove Convertible Securities Fund,Other,"$48,692,577 ",NA-Private,Convertible Securities
,,"$26,239,834,708 ",,
